%YAML 1.1
%TAG !u! tag:unity3d.com,2011:
--- !u!114 &-8678008879499976426
MonoBehaviour:
  m_ObjectHideFlags: 11
  m_CorrespondingSourceObject: {fileID: 0}
  m_PrefabInstance: {fileID: 0}
  m_PrefabAsset: {fileID: 0}
  m_GameObject: {fileID: 0}
  m_Enabled: 1
  m_EditorHideFlags: 0
  m_Script: {fileID: 11500000, guid: da692e001514ec24dbc4cca1949ff7e8, type: 3}
  m_Name: 
  m_EditorClassIdentifier: 
  version: 12
  hdPluginSubTargetMaterialVersions:
    m_Keys: []
    m_Values: 
--- !u!21 &2100000
Material:
  serializedVersion: 6
  m_ObjectHideFlags: 0
  m_CorrespondingSourceObject: {fileID: 0}
  m_PrefabInstance: {fileID: 0}
  m_PrefabAsset: {fileID: 0}
  m_Name: plant_tve
  m_Shader: {fileID: 4800000, guid: 04f676b9352602040b5ffe58897e6e1b, type: 3}
  m_ShaderKeywords: TVE_ALPHA_CLIP _DISABLE_DECALS _DISABLE_SSR
  m_LightmapFlags: 0
  m_EnableInstancingVariants: 1
  m_DoubleSidedGI: 0
  m_CustomRenderQueue: 2450
  stringTagMap:
    NatureRendererInstancing: true
    RenderType: AlphaTest
  disabledShaderPasses:
  - TransparentDepthPrepass
  - TransparentDepthPostpass
  - TransparentBackface
  - RayTracingPrepass
  - MOTIONVECTORS
  m_SavedProperties:
    serializedVersion: 3
    m_TexEnvs:
    - _AnisotropyMap:
        m_Texture: {fileID: 0}
        m_Scale: {x: 1, y: 1}
        m_Offset: {x: 0, y: 0}
    - _BaseColorMap:
        m_Texture: {fileID: 2800000, guid: 5ad4fd86c9fef194ea12eafb7d4188b7, type: 3}
        m_Scale: {x: 1, y: 1}
        m_Offset: {x: 0, y: 0}
    - _BentNormalMap:
        m_Texture: {fileID: 0}
        m_Scale: {x: 1, y: 1}
        m_Offset: {x: 0, y: 0}
    - _BentNormalMapOS:
        m_Texture: {fileID: 0}
        m_Scale: {x: 1, y: 1}
        m_Offset: {x: 0, y: 0}
    - _BumpMap:
        m_Texture: {fileID: 0}
        m_Scale: {x: 1, y: 1}
        m_Offset: {x: 0, y: 0}
    - _CoatMaskMap:
        m_Texture: {fileID: 0}
        m_Scale: {x: 1, y: 1}
        m_Offset: {x: 0, y: 0}
    - _DetailMap:
        m_Texture: {fileID: 0}
        m_Scale: {x: 1, y: 1}
        m_Offset: {x: 0, y: 0}
    - _EmissiveColorMap:
        m_Texture: {fileID: 2800000, guid: 5ad4fd86c9fef194ea12eafb7d4188b7, type: 3}
        m_Scale: {x: 1, y: 1}
        m_Offset: {x: 0, y: 0}
    - _EmissiveTex:
        m_Texture: {fileID: 2800000, guid: 5ad4fd86c9fef194ea12eafb7d4188b7, type: 3}
        m_Scale: {x: 1, y: 1}
        m_Offset: {x: 0, y: 0}
    - _HeightMap:
        m_Texture: {fileID: 0}
        m_Scale: {x: 1, y: 1}
        m_Offset: {x: 0, y: 0}
    - _IridescenceMaskMap:
        m_Texture: {fileID: 0}
        m_Scale: {x: 1, y: 1}
        m_Offset: {x: 0, y: 0}
    - _IridescenceThicknessMap:
        m_Texture: {fileID: 0}
        m_Scale: {x: 1, y: 1}
        m_Offset: {x: 0, y: 0}
    - _MainAlbedoTex:
        m_Texture: {fileID: 2800000, guid: 5ad4fd86c9fef194ea12eafb7d4188b7, type: 3}
        m_Scale: {x: 1, y: 1}
        m_Offset: {x: 0, y: 0}
    - _MainMaskTex:
        m_Texture: {fileID: 0}
        m_Scale: {x: 1, y: 1}
        m_Offset: {x: 0, y: 0}
    - _MainNormalTex:
        m_Texture: {fileID: 0}
        m_Scale: {x: 1, y: 1}
        m_Offset: {x: 0, y: 0}
    - _MainTex:
        m_Texture: {fileID: 2800000, guid: 5ad4fd86c9fef194ea12eafb7d4188b7, type: 3}
        m_Scale: {x: 1, y: 1}
        m_Offset: {x: 0, y: 0}
    - _MaskMap:
        m_Texture: {fileID: 0}
        m_Scale: {x: 1, y: 1}
        m_Offset: {x: 0, y: 0}
    - _NormalMap:
        m_Texture: {fileID: 0}
        m_Scale: {x: 1, y: 1}
        m_Offset: {x: 0, y: 0}
    - _NormalMapOS:
        m_Texture: {fileID: 0}
        m_Scale: {x: 1, y: 1}
        m_Offset: {x: 0, y: 0}
    - _SpecularColorMap:
        m_Texture: {fileID: 0}
        m_Scale: {x: 1, y: 1}
        m_Offset: {x: 0, y: 0}
    - _SubsurfaceMaskMap:
        m_Texture: {fileID: 0}
        m_Scale: {x: 1, y: 1}
        m_Offset: {x: 0, y: 0}
    - _TangentMap:
        m_Texture: {fileID: 0}
        m_Scale: {x: 1, y: 1}
        m_Offset: {x: 0, y: 0}
    - _TangentMapOS:
        m_Texture: {fileID: 0}
        m_Scale: {x: 1, y: 1}
        m_Offset: {x: 0, y: 0}
    - _ThicknessMap:
        m_Texture: {fileID: 0}
        m_Scale: {x: 1, y: 1}
        m_Offset: {x: 0, y: 0}
    - _TransmittanceColorMap:
        m_Texture: {fileID: 0}
        m_Scale: {x: 1, y: 1}
        m_Offset: {x: 0, y: 0}
    - unity_Lightmaps:
        m_Texture: {fileID: 0}
        m_Scale: {x: 1, y: 1}
        m_Offset: {x: 0, y: 0}
    - unity_LightmapsInd:
        m_Texture: {fileID: 0}
        m_Scale: {x: 1, y: 1}
        m_Offset: {x: 0, y: 0}
    - unity_ShadowMasks:
        m_Texture: {fileID: 0}
        m_Scale: {x: 1, y: 1}
        m_Offset: {x: 0, y: 0}
    m_Ints: []
    m_Floats:
    - _AORemapMax: 1
    - _AORemapMin: 0
    - _ATDistance: 1
    - _AddPrecomputedVelocity: 0
    - _AlbedoAffectEmissive: 0
    - _AlphaCutoff: 0.5
    - _AlphaCutoffEnable: 1
    - _AlphaCutoffPostpass: 0.5
    - _AlphaCutoffPrepass: 0.5
    - _AlphaCutoffShadow: 0.5
    - _AlphaDstBlend: 0
    - _AlphaSrcBlend: 1
    - _AlphaToMask: 0
    - _AlphaToMaskInspectorValue: 0
    - _Anisotropy: 0
    - _BlendMode: 0
    - _CoatMask: 0
    - _ColorsMaskMaxValue: 0.48201436
    - _ColorsMaskMinValue: 0
    - _ColorsVariationValue: 0
    - _CullMode: 0
    - _CullModeForward: 0
    - _Cutoff: 0.5
    - _DepthOffsetEnable: 0
    - _DetailAlbedoScale: 1
    - _DetailBlendMode: 1
    - _DetailCat: 0
    - _DetailMode: 0
    - _DetailNormalScale: 1
    - _DetailSmoothnessScale: 1
    - _DetailTypeMode: 0
    - _DiffusionProfile: 0
    - _DiffusionProfileHash: 0
    - _DisplacementLockObjectScale: 1
    - _DisplacementLockTilingScale: 1
    - _DisplacementMode: 0
    - _DoubleSidedEnable: 0
    - _DoubleSidedGIMode: 0
    - _DoubleSidedNormalMode: 1
    - _DstBlend: 0
    - _EmissiveCat: 1
    - _EmissiveColorMode: 1
    - _EmissiveExposureValue: 0.865
    - _EmissiveExposureWeight: 0
    - _EmissiveFlagMode: 0
    - _EmissiveIntensity: 1.76
    - _EmissiveIntensityUnit: 0
    - _EnableBlendModePreserveSpecularLighting: 1
    - _EnableFogOnTransparent: 1
    - _EnableGeometricSpecularAA: 0
    - _EnergyConservingSpecularColor: 1
    - _FadeCameraValue: 1
    - _FadeGlancingValue: 0
    - _FadeSpace: 0
    - _GlobalAlpha: 1
    - _GlobalCat: 1
    - _GlobalColors: 1
    - _GlobalEmissive: 0.993
    - _GlobalOverlay: 1
    - _GlobalSize: 1
    - _GlobalWetness: 1
    - _GradientCat: 1
    - _GradientMaxValue: 1
    - _GradientMinValue: 0
    - _HasEmissive: 1
    - _HasGradient: 1
    - _HasOcclusion: 1
    - _HeightAmplitude: 0.02
    - _HeightCenter: 0.5
    - _HeightMapParametrization: 0
    - _HeightMax: 1
    - _HeightMin: -1
    - _HeightOffset: 0
    - _HeightPoMAmplitude: 2
    - _HeightTessAmplitude: 2
    - _HeightTessCenter: 0.5
    - _InteractionAmplitude: 0.25
    - _InteractionMaskValue: 0.091
    - _InvTilingScale: 1
    - _Ior: 1.5
    - _IridescenceMask: 1
    - _IridescenceThickness: 1
    - _IsGrassShader: 1
    - _IsLeafShader: 1
    - _IsStandardShader: 1
    - _IsTVEShader: 1
    - _IsVersion: 600
    - _LayerColorsValue: 0
    - _LayerExtrasValue: 0
    - _LayerMotionValue: 0
    - _LayerReactValue: 0
    - _LayerVertexValue: 0
    - _LayersSpace: 0
    - _LinkDetailsWithBase: 1
    - _LocalSize: 1
    - _MainCat: 1
    - _MainLightAngleValue: 8
    - _MainLightNormalValue: 0.5
    - _MainLightScatteringValue: 8
    - _MainNormalValue: -0.7
    - _MainOcclusionValue: 1
    - _MainSmoothnessValue: 0
    - _MaterialID: 1
    - _Metallic: 0
    - _MetallicRemapMax: 1
    - _MetallicRemapMin: 0
    - _MotionAmplitude_10: 0.127
    - _MotionAmplitude_20: 0.1
    - _MotionAmplitude_21: 0
    - _MotionAmplitude_22: 0
    - _MotionAmplitude_32: 0.2
    - _MotionCat: 1
    - _MotionScale_10: 0
    - _MotionScale_20: 0
    - _MotionScale_32: 0
    - _MotionSpace: 0
    - _MotionSpeed_10: 2
    - _MotionSpeed_20: 4
    - _MotionSpeed_32: 4
    - _MotionVariation_10: 0
    - _MotionVariation_20: 5
    - _MotionVariation_32: 2
    - _NoiseCat: 1
    - _NoiseMaxValue: 1
    - _NoiseMinValue: 0
    - _NoiseScaleValue: 0.01
    - _NormalMapSpace: 0
    - _NormalScale: 1
    - _OcclusionCat: 1
    - _OpaqueCullMode: 2
    - _OverlayMaskMaxValue: 0.55
    - _OverlayMaskMinValue: 0.45
    - _OverlayVariationValue: 0
    - _PPDLodThreshold: 5
    - _PPDMaxSamples: 15
    - _PPDMinSamples: 5
    - _PPDPrimitiveLength: 1
    - _PPDPrimitiveWidth: 1
    - _PerspectiveAngleValue: 1
    - _PerspectiveCat: 1
    - _PerspectiveNoiseValue: 0
    - _PerspectivePushValue: 0
    - _RayTracing: 0
    - _ReceiveSpace: 0
    - _ReceivesSSR: 1
    - _ReceivesSSRTransparent: 0
    - _RefractionModel: 0
    - _RenderClip: 1
    - _RenderCull: 0
    - _RenderDecals: 0
    - _RenderMode: 0
    - _RenderNormals: 0
    - _RenderPriority: 0
    - _RenderQueue: 0
    - _RenderQueueType: 1
    - _RenderSSR: 0
    - _RenderSpecular: 1
    - _RenderZWrite: 1
    - _RenderingCat: 1
    - _RequireSplitLighting: 0
    - _SizeFadeCat: 1
    - _SizeFadeEndValue: 300
    - _SizeFadeMessage: 0
    - _SizeFadeMode: 0
    - _SizeFadeStartValue: 200
    - _Smoothness: 0.5
    - _SmoothnessRemapMax: 1
    - _SmoothnessRemapMin: 0
    - _SpecularAAScreenSpaceVariance: 0.1
    - _SpecularAAThreshold: 0.2
    - _SpecularOcclusionMode: 1
    - _SrcBlend: 1
    - _StencilRef: 0
    - _StencilRefDepth: 0
    - _StencilRefDistortionVec: 4
    - _StencilRefGBuffer: 2
    - _StencilRefMV: 32
    - _StencilWriteMask: 6
    - _StencilWriteMaskDepth: 8
    - _StencilWriteMaskDistortionVec: 4
    - _StencilWriteMaskGBuffer: 14
    - _StencilWriteMaskMV: 40
    - _SubsurfaceCat: 1
    - _SubsurfaceDiffusion: 3.5648174
    - _SubsurfaceMask: 1
    - _SubsurfaceMaskMaxValue: 1
    - _SubsurfaceMaskMinValue: 0
    - _SubsurfaceValue: 1
    - _SupportDecals: 1
    - _SurfaceType: 0
    - _TexWorldScale: 1
    - _TexWorldScaleEmissive: 1
    - _Thickness: 1
    - _TranslucencyAmbientValue: 0.2
    - _TranslucencyDirectValue: 1
    - _TranslucencyHDMessage: 0
    - _TranslucencyIntensityValue: 1
    - _TranslucencyNormalValue: 0.1
    - _TranslucencyScatteringValue: 2
    - _TranslucencyShadowValue: 1
    - _TransmissionEnable: 1
    - _TransparentBackfaceEnable: 0
    - _TransparentCullMode: 0
    - _TransparentDepthPostpassEnable: 0
    - _TransparentDepthPrepassEnable: 0
    - _TransparentSortPriority: 0
    - _TransparentWritingMotionVec: 0
    - _TransparentZWrite: 1
    - _UVBase: 0
    - _UVDetail: 0
    - _UVEmissive: 0
    - _UseEmissiveIntensity: 1
    - _UseShadowThreshold: 0
    - _VariationGlobalsMessage: 0
    - _VariationMotionMessage: 0
    - _VertexDataMode: 0
    - _VertexDynamicMode: 0
    - _VertexMasksMode: 0
    - _VertexOcclusionMaxValue: 1
    - _VertexOcclusionMinValue: 0
    - _VertexPivotMode: 0
    - _VertexRollingMode: 1
    - _VertexVariationMode: 0
    - _ZTestDepthEqualForOpaque: 3
    - _ZTestGBuffer: 4
    - _ZTestTransparent: 4
    - _ZWrite: 1
    - _render_cull: 0
    - _render_dst: 0
    - _render_src: 1
    - _render_zw: 1
    - _vertex_pivot_mode: 0
    m_Colors:
    - _AlphaMaskRemap: {r: 0, g: 0, b: 0, a: 0}
    - _BaseColor: {r: 1, g: 1, b: 1, a: 1}
    - _BaseColorMap_MipInfo: {r: 0, g: 0, b: 0, a: 0}
    - _Color: {r: 1, g: 1, b: 1, a: 1}
    - _ColorsMaskRemap: {r: 0, g: 0.48201436, b: 0, a: 0}
    - _DetailBlendRemap: {r: 0, g: 0, b: 0, a: 0}
    - _DiffusionProfileAsset: {r: 0, g: 0, b: 0, a: 0}
    - _DoubleSidedConstants: {r: -1, g: -1, b: -1, a: 0}
    - _EmissionColor: {r: 1, g: 1, b: 1, a: 1}
    - _EmissiveColor: {r: 0, g: 1.6586384, b: 1.7599998, a: 1.76}
    - _EmissiveColorLDR: {r: 0, g: 0.8553662, b: 0.88031507, a: 1}
    - _EmissiveIntensityParams: {r: 128, g: 5, b: 10, a: 1}
    - _EmissiveUVs: {r: 1, g: 1, b: 0, a: 0}
    - _GradientColorOne: {r: 1, g: 1, b: 1, a: 1}
    - _GradientColorTwo: {r: 1, g: 1, b: 1, a: 1}
    - _GradientMaskRemap: {r: 0, g: 0, b: 0, a: 0}
    - _InvPrimScale: {r: 1, g: 1, b: 0, a: 0}
    - _IridescenceThicknessRemap: {r: 0, g: 1, b: 0, a: 0}
    - _LeavesMaskRemap: {r: 0, g: 0, b: 0, a: 2}
    - _MainColor: {r: 1, g: 1, b: 1, a: 1}
    - _MainUVs: {r: 1, g: 1, b: 0, a: 0}
    - _MaxBoundsInfo: {r: 1, g: 1, b: 1, a: 1}
    - _MotionHighlightColor: {r: 2, g: 2, b: 2, a: 1}
    - _NoiseColorOne: {r: 1, g: 1, b: 1, a: 1}
    - _NoiseColorTwo: {r: 1, g: 1, b: 1, a: 1}
    - _NoiseMaskRemap: {r: 0, g: 0, b: 0, a: 0}
    - _OverlayMaskRemap: {r: 0.45, g: 0.55, b: 0, a: 0}
    - _SpecularColor: {r: 1, g: 1, b: 1, a: 1}
    - _SubsurfaceColor: {r: 0.4, g: 0.4, b: 0.1, a: 1}
    - _SubsurfaceDiffusion_Asset: {r: 2.2888926e+38, g: 1.2389358e-26, b: 7.69327e-37,
        a: 0.00018220427}
    - _SubsurfaceDiffusion_asset: {r: 2.2888926e+38, g: 1.2389358e-26, b: 7.69327e-37,
        a: 0.00018220427}
    - _SubsurfaceMaskRemap: {r: 0, g: 0, b: 0, a: 0}
    - _ThicknessRemap: {r: 0, g: 1, b: 0, a: 0}
    - _TransmittanceColor: {r: 1, g: 1, b: 1, a: 1}
    - _UVDetailsMappingMask: {r: 1, g: 0, b: 0, a: 0}
    - _UVMappingMask: {r: 1, g: 0, b: 0, a: 0}
    - _UVMappingMaskEmissive: {r: 1, g: 0, b: 0, a: 0}
    - _VertexOcclusionColor: {r: 1, g: 1, b: 1, a: 1}
    - _VertexOcclusionRemap: {r: 0, g: 0, b: 0, a: 0}
    - _render_normals_options: {r: -1, g: -1, b: -1, a: 0}
  m_BuildTextureStacks: []
