%YAML 1.1
%TAG !u! tag:unity3d.com,2011:
--- !u!1045 &1
EditorBuildSettings:
  m_ObjectHideFlags: 0
  serializedVersion: 2
  m_Scenes:
  - enabled: 0
    path: Assets/Scenes/Main Menu/Main Menu.unity
    guid: bbe72b861d18fd240825bb84e0c9c4f8
  - enabled: 0
    path: Assets/Scenes/Map1 (Chamber/Map1.unity
    guid: 3c2b27bf3ee87004ebc39f4c57eb3f82
  - enabled: 1
    path: Assets/Scenes/Map2 (Island)/Map2.unity
    guid: 3c19c5a1e61f69340a29d1802f477c19
  - enabled: 0
    path: Assets/Scenes/Map3 (Probulider)/Map3.unity
    guid: 7f65c6eca86aedf4d91a491b2b14c284
  - enabled: 0
    path: Assets/Scenes/FairyCouncil/FairyCouncilR3.unity
    guid: f3719afbe08f2ba42abe7c99f50b50f0
  - enabled: 0
    path: Assets/Scenes/LysPalace/LysPalaceeee.unity
    guid: 0bded38cd7cf92b4abc8bbdcc7150809
  m_configObjects:
    com.unity.input.settings: {fileID: 11400000, guid: 1868bd8dd001d3843ab54593d785ec0e,
      type: 2}
